N%C3%A4ide;3;on;27
Veel+%C3%BCks+n%C3%A4ide;2;on;33
aaa;;;47
aaa;;;49
fb6f1+b823c;;;52
aaa;;;54
aaa;;;56
aaa;;;59
aaa;;;62
aaa;;;73
aaa;;;77
aaa;;;81
aaa;;;89
aaa;;;103
afsafaf;2;on;118
a%5C%5C%5C;3;on;125
aaaa;3;on;126
asfasfsf;3;on;128
asfasfsf;3;on;129
asfasfsf;3;on;130
asfasfasf;3;on;133
hfadhr;5;on;134
homme;3;on;135
